Routine structural missing data diagnostics • smdi
…
The dataset consists of 2,500 patients and 14 variables with
exposure representing the two treatment regimens under
comparison and status and eventtime the vital
status and censoring time, respectively.

smdi_data %>% 
  smdi::smdi_na_indicator(na_strategy = "drop")
#> # A tibble: 2,500 × 14
#>    exposure age_num female_cat smoking…¹ physi…² alk_cat histo…³ ses_cat copd_…⁴
#>       <int>   <dbl> <fct>      <fct>     <fct>   <fct>   <fct>   <fct>   <fct>  
#>  1        1    35.2 1          1         1       0       1       2_midd… 1      
#>  2        1    51.2 0          1         1       0       1       3_high  0      
#>  3        0    88.2 0          0         0       0       0       2_midd… 1      
#>  4        1    50.8 0          1         0       0       0       2_midd… 1      
#>  5        1    40.5 0          1         0       0       0       2_midd… 1      
#>  6        0    64.6 0          0         0       0       0       2_midd… 0      
#>  7        1    73.6 0          1         1       0       0       2_midd… 1      
#>  8        0    42.4 1          1         0       0       0       3_high  1      
#>  9        1    53.0 1          1         1       0       0       1_low   1      
#> 10        1    62.9 1          0         0       0       0       3_high  1      
#> # … with 2,490 more rows, 5 more variables: eventtime <dbl>, status <int>,
#> #   pdl1_num_NA <dbl>, ecog_cat_NA <dbl>, egfr_cat_NA <dbl>, and abbreviated
#> #   variable names ¹​smoking_cat, ²​physical_cat, ³​histology_cat, ⁴​copd_cat
…
